25

3
a
b
c
2 3 1
1 3 2

4
a
b
c
d
3 2 1 4
1 4 3 2
1 3 4 2
4 3 1 2
2 4 1 3

6
a
b
c
d
e
f
5 2 1 4 6 3
2 3 1 5 6 4
4 2 1 6 5 3
6 5 3 1 2 4
1 4 2 6 5 3
5 6 4 2 3 1
3 1 6 4 5 2

6
a
b
c
d
e
f
1 3 5 4 6 2
1 5 4 6 3 2
6 3 4 5 2 1
5 4 2 1 3 6
4 1 6 3 5 2
2 3 6 1 5 4

2
a
b
2 1
1 2
2 1

2
a
b
1 2
1 2
2 1
2 1

4
a
b
c
d
2 4 3 1
4 2 1 3

6
a
b
c
d
e
f
4 5 2 3 6 1
1 4 2 3 5 6
1 3 5 2 6 4
4 6 5 1 2 3

3
a
b
c
3 2 1
1 3 2
3 1 2
2 1 3
1 2 3
1 3 2
3 2 1
3 1 2

5
a
b
c
d
e
5 1 4 2 3
1 2 3 5 4
1 2 4 5 3
1 4 3 2 5
5 2 4 1 3

6
a
b
c
d
e
f
4 2 1 6 5 3
5 3 1 6 4 2
5 3 1 6 4 2
6 5 1 4 2 3
2 4 3 6 1 5

4
a
b
c
d
3 2 4 1
1 2 4 3
3 1 2 4
4 1 2 3
1 4 3 2
2 4 1 3
1 4 3 2

5
a
b
c
d
e
1 4 3 5 2
5 4 1 3 2

2
a
b
1 2
2 1
2 1

4
a
b
c
d
2 4 1 3
4 3 2 1
4 3 1 2
3 1 4 2
2 3 4 1
2 1 4 3
1 4 2 3

3
a
b
c
3 2 1
1 3 2
3 1 2
1 2 3
1 3 2
2 1 3
1 3 2

2
a
b
2 1
2 1
1 2
1 2
1 2

4
a
b
c
d
3 2 1 4
3 2 4 1
1 2 3 4
4 2 3 1
1 3 2 4

5
a
b
c
d
e
5 1 2 4 3
2 1 3 5 4
1 3 5 4 2
5 2 4 1 3
3 4 1 2 5

5
a
b
c
d
e
4 3 2 1 5
3 2 1 5 4
5 3 4 1 2

3
a
b
c
2 1 3
2 3 1
3 2 1
2 3 1
1 2 3

4
a
b
c
d
4 2 3 1
3 4 2 1

2
a
b
1 2
2 1
2 1
2 1
2 1

3
a
b
c
3 2 1
1 2 3
3 1 2
3 1 2
1 2 3

6
a
b
c
d
e
f
3 2 5 6 1 4
4 2 5 3 6 1
4 3 2 5 6 1
