20

3
Barton
Ingram
Robbins
1 2 3
3 1 2
1 2 3

6
Barton
Ingram
Ryan
Collins
Castro
Mccarty
3 6 5 1 2 4
6 5 1 4 2 3
4 5 3 6 1 2
5 4 6 1 2 3
1 4 3 2 5 6

4
Singleton
Spence
Hanson
Ryan
3 1 4 2
3 1 4 2
1 3 4 2
2 4 1 3
3 2 1 4
1 3 2 4
4 2 1 3
3 4 1 2
3 1 2 4
2 3 1 4

5
Robbins
Singleton
Barton
Carter
Ryan
5 4 3 1 2
2 3 4 1 5
4 1 5 3 2
5 1 4 3 2

3
Montes
Carter
Collins
2 1 3
2 1 3
3 2 1
2 3 1

6
Collins
Robbins
Montes
Hanson
Barton
Ingram
2 3 4 5 6 1
5 4 2 3 6 1
2 1 6 3 4 5
3 4 1 2 6 5
4 5 1 2 6 3
5 2 6 3 4 1
3 2 6 1 5 4

2
Carter
Ingram
2 1
2 1
2 1
2 1
1 2
2 1
2 1
1 2
1 2
2 1
2 1

6
Collins
Singleton
Hanson
Robbins
Carter
Ryan
4 2 1 5 3 6
1 4 2 3 6 5
4 6 3 1 5 2
5 1 6 3 2 4
4 1 5 6 2 3
3 2 5 1 4 6
2 1 6 3 5 4
3 2 1 4 5 6
2 3 1 5 4 6
2 5 3 1 6 4

5
Montes
Carter
Ingram
Ryan
Singleton
3 1 4 2 5
2 3 5 4 1
5 3 2 1 4
1 3 4 5 2
2 3 1 4 5
3 5 4 1 2
2 1 3 5 4
2 5 1 3 4
3 1 4 2 5

7
Robbins
Hanson
Ryan
Castro
Collins
Spence
Singleton
4 3 6 2 1 5 7
1 7 5 2 4 6 3
1 7 6 3 4 2 5

5
Collins
Singleton
Spence
Mccarty
Castro
2 3 1 4 5
2 4 5 1 3
4 1 2 5 3
5 4 3 2 1
2 1 3 4 5
4 2 1 3 5
1 4 3 5 2
3 5 4 2 1

5
Ingram
Spence
Robbins
Collins
Montes
1 2 4 5 3
4 5 1 3 2
1 3 2 4 5
4 2 5 3 1
3 5 2 4 1
4 5 3 1 2
1 2 3 4 5
2 4 3 1 5
2 4 1 5 3
2 5 3 4 1
1 3 2 4 5

4
Castro
Singleton
Montes
Hanson
1 3 4 2
1 2 4 3
3 4 2 1
1 4 2 3
1 2 3 4
3 4 2 1
4 1 2 3
2 3 1 4

5
Robbins
Hanson
Castro
Barton
Ingram
5 2 3 1 4
4 5 1 3 2
1 2 3 5 4
3 4 2 1 5
4 5 1 2 3
5 2 3 4 1
5 2 4 3 1

3
Carter
Mccarty
Ryan
1 3 2
3 2 1
2 1 3
3 2 1
2 1 3
2 1 3

5
Ingram
Mccarty
Castro
Collins
Carter
3 5 4 2 1
4 5 3 1 2
1 4 3 5 2
1 5 4 2 3
5 4 3 2 1
5 4 1 2 3
4 3 5 2 1
5 4 1 3 2
5 2 1 3 4
5 1 4 3 2

3
Barton
Montes
Singleton
3 2 1
2 1 3
1 3 2
2 1 3
3 2 1

6
Hanson
Spence
Ryan
Mccarty
Ingram
Singleton
1 5 4 3 6 2
5 1 2 3 6 4
5 6 3 4 1 2
3 4 5 2 6 1
5 3 6 4 1 2
5 4 6 3 2 1
1 3 5 2 4 6
6 1 4 2 3 5
3 1 5 2 6 4
6 4 2 5 1 3
6 2 3 1 5 4
6 4 1 5 2 3

2
Singleton
Castro
2 1
2 1
2 1
1 2
2 1
2 1

5
Mccarty
Spence
Robbins
Carter
Ryan
5 1 3 4 2
3 5 2 1 4
4 1 3 2 5
1 3 4 2 5
2 1 3 5 4
4 2 3 5 1
2 3 5 4 1
4 2 1 5 3
